module dauka_basket

go 1.15

require (
	github.com/dgrijalva/jwt-go v3.2.0+incompatible
	github.com/golang/protobuf v1.4.3
	go.mongodb.org/mongo-driver v1.5.0
	google.golang.org/grpc v1.36.0
	google.golang.org/protobuf v1.25.0
)
